G04 #@! TF.GenerationSoftware,KiCad,Pcbnew,(5.1.4-0)*
G04 #@! TF.CreationDate,2021-06-11T11:51:11+02:00*
G04 #@! TF.ProjectId,StereoMixer_Faceplate,53746572-656f-44d6-9978-65725f466163,rev?*
G04 #@! TF.SameCoordinates,Original*
G04 #@! TF.FileFunction,Legend,Top*
G04 #@! TF.FilePolarity,Positive*
%FSLAX46Y46*%
G04 Gerber Fmt 4.6, Leading zero omitted, Abs format (unit mm)*
G04 Created by KiCad (PCBNEW (5.1.4-0)) date 2021-06-11 11:51:11*
%MOMM*%
%LPD*%
G04 APERTURE LIST*
%ADD10C,0.500000*%
%ADD11C,0.600000*%
%ADD12C,0.400000*%
%ADD13C,0.300000*%
G04 APERTURE END LIST*
D10*
X124999531Y-137000000D02*
G75*
G03X124999531Y-137000000I-1999531J0D01*
G01*
X98999531Y-137000000D02*
G75*
G03X98999531Y-137000000I-1999531J0D01*
G01*
D11*
X128850000Y-57000000D02*
X90850000Y-57000000D01*
X128850000Y-79000000D02*
X90850000Y-79000000D01*
X128850000Y-79000000D02*
X128850000Y-57000000D01*
X128850000Y-102000000D02*
X90850000Y-102000000D01*
X90850000Y-102000000D02*
X90850000Y-80000000D01*
X128850000Y-80000000D02*
X90850000Y-80000000D01*
X90850000Y-56000000D02*
X90850000Y-34000000D01*
X128850000Y-56000000D02*
X90850000Y-56000000D01*
X90850000Y-34000000D02*
X128850000Y-34000000D01*
D12*
X117850000Y-28500000D02*
X118850000Y-28500000D01*
X101050000Y-28500000D02*
X102050000Y-28500000D01*
X101000000Y-151000000D02*
X103800000Y-151000000D01*
X116100000Y-151000000D02*
X118850000Y-151000000D01*
X127050000Y-28500000D02*
X129850000Y-28500000D01*
X90150000Y-28500000D02*
X92950000Y-28500000D01*
X90150000Y-151000000D02*
X92850000Y-151000000D01*
X127050000Y-151000000D02*
X129850000Y-151000000D01*
D11*
X107284924Y-118557505D02*
G75*
G02X112850000Y-118500000I2715076J6557505D01*
G01*
D13*
X104316666Y-151909523D02*
X104516666Y-152004761D01*
X104850000Y-152004761D01*
X104983333Y-151909523D01*
X105050000Y-151814285D01*
X105116666Y-151623809D01*
X105116666Y-151433333D01*
X105050000Y-151242857D01*
X104983333Y-151147619D01*
X104850000Y-151052380D01*
X104583333Y-150957142D01*
X104450000Y-150861904D01*
X104383333Y-150766666D01*
X104316666Y-150576190D01*
X104316666Y-150385714D01*
X104383333Y-150195238D01*
X104450000Y-150100000D01*
X104583333Y-150004761D01*
X104916666Y-150004761D01*
X105116666Y-150100000D01*
X105983333Y-150004761D02*
X106250000Y-150004761D01*
X106383333Y-150100000D01*
X106516666Y-150290476D01*
X106583333Y-150671428D01*
X106583333Y-151338095D01*
X106516666Y-151719047D01*
X106383333Y-151909523D01*
X106250000Y-152004761D01*
X105983333Y-152004761D01*
X105850000Y-151909523D01*
X105716666Y-151719047D01*
X105650000Y-151338095D01*
X105650000Y-150671428D01*
X105716666Y-150290476D01*
X105850000Y-150100000D01*
X105983333Y-150004761D01*
X107850000Y-152004761D02*
X107183333Y-152004761D01*
X107183333Y-150004761D01*
X108316666Y-152004761D02*
X108316666Y-150004761D01*
X108983333Y-151814285D02*
X109050000Y-151909523D01*
X108983333Y-152004761D01*
X108916666Y-151909523D01*
X108983333Y-151814285D01*
X108983333Y-152004761D01*
X109583333Y-151909523D02*
X109783333Y-152004761D01*
X110116666Y-152004761D01*
X110250000Y-151909523D01*
X110316666Y-151814285D01*
X110383333Y-151623809D01*
X110383333Y-151433333D01*
X110316666Y-151242857D01*
X110250000Y-151147619D01*
X110116666Y-151052380D01*
X109850000Y-150957142D01*
X109716666Y-150861904D01*
X109650000Y-150766666D01*
X109583333Y-150576190D01*
X109583333Y-150385714D01*
X109650000Y-150195238D01*
X109716666Y-150100000D01*
X109850000Y-150004761D01*
X110183333Y-150004761D01*
X110383333Y-150100000D01*
X111250000Y-151052380D02*
X111250000Y-152004761D01*
X110783333Y-150004761D02*
X111250000Y-151052380D01*
X111716666Y-150004761D01*
X112183333Y-152004761D02*
X112183333Y-150004761D01*
X112983333Y-152004761D01*
X112983333Y-150004761D01*
X113450000Y-150004761D02*
X114250000Y-150004761D01*
X113850000Y-152004761D02*
X113850000Y-150004761D01*
X114716666Y-152004761D02*
X114716666Y-150004761D01*
X114716666Y-150957142D02*
X115516666Y-150957142D01*
X115516666Y-152004761D02*
X115516666Y-150004761D01*
X108025000Y-129800000D02*
X108025000Y-129100000D01*
X109700000Y-130750000D02*
X108025000Y-129800000D01*
X108075000Y-131800000D02*
X109700000Y-130750000D01*
X108075000Y-132500000D02*
X108075000Y-131800000D01*
X111775000Y-132500000D02*
X108075000Y-132500000D01*
X111775000Y-131800000D02*
X111775000Y-132500000D01*
X109425000Y-131800000D02*
X111775000Y-131800000D01*
X111075000Y-130750000D02*
X109425000Y-131800000D01*
X109475000Y-129800000D02*
X111075000Y-130750000D01*
X111775000Y-129800000D02*
X109475000Y-129800000D01*
X111775000Y-129100000D02*
X111775000Y-129800000D01*
X108075000Y-129100000D02*
X111775000Y-129100000D01*
X121900000Y-141635714D02*
X121828571Y-141707142D01*
X121614285Y-141778571D01*
X121471428Y-141778571D01*
X121257142Y-141707142D01*
X121114285Y-141564285D01*
X121042857Y-141421428D01*
X120971428Y-141135714D01*
X120971428Y-140921428D01*
X121042857Y-140635714D01*
X121114285Y-140492857D01*
X121257142Y-140350000D01*
X121471428Y-140278571D01*
X121614285Y-140278571D01*
X121828571Y-140350000D01*
X121900000Y-140421428D01*
X123257142Y-141778571D02*
X122542857Y-141778571D01*
X122542857Y-140278571D01*
X123757142Y-141778571D02*
X123757142Y-140278571D01*
X124471428Y-141778571D02*
X124471428Y-140278571D01*
X125042857Y-140278571D01*
X125185714Y-140350000D01*
X125257142Y-140421428D01*
X125328571Y-140564285D01*
X125328571Y-140778571D01*
X125257142Y-140921428D01*
X125185714Y-140992857D01*
X125042857Y-141064285D01*
X124471428Y-141064285D01*
X95900000Y-141635714D02*
X95828571Y-141707142D01*
X95614285Y-141778571D01*
X95471428Y-141778571D01*
X95257142Y-141707142D01*
X95114285Y-141564285D01*
X95042857Y-141421428D01*
X94971428Y-141135714D01*
X94971428Y-140921428D01*
X95042857Y-140635714D01*
X95114285Y-140492857D01*
X95257142Y-140350000D01*
X95471428Y-140278571D01*
X95614285Y-140278571D01*
X95828571Y-140350000D01*
X95900000Y-140421428D01*
X97257142Y-141778571D02*
X96542857Y-141778571D01*
X96542857Y-140278571D01*
X97757142Y-141778571D02*
X97757142Y-140278571D01*
X98471428Y-141778571D02*
X98471428Y-140278571D01*
X99042857Y-140278571D01*
X99185714Y-140350000D01*
X99257142Y-140421428D01*
X99328571Y-140564285D01*
X99328571Y-140778571D01*
X99257142Y-140921428D01*
X99185714Y-140992857D01*
X99042857Y-141064285D01*
X98471428Y-141064285D01*
D12*
X97469047Y-122404761D02*
X96516666Y-122404761D01*
X96516666Y-120404761D01*
X123719047Y-122404761D02*
X123052380Y-121452380D01*
X122576190Y-122404761D02*
X122576190Y-120404761D01*
X123338095Y-120404761D01*
X123528571Y-120500000D01*
X123623809Y-120595238D01*
X123719047Y-120785714D01*
X123719047Y-121071428D01*
X123623809Y-121261904D01*
X123528571Y-121357142D01*
X123338095Y-121452380D01*
X122576190Y-121452380D01*
D13*
X102650000Y-29409523D02*
X102850000Y-29504761D01*
X103183333Y-29504761D01*
X103316666Y-29409523D01*
X103383333Y-29314285D01*
X103450000Y-29123809D01*
X103450000Y-28933333D01*
X103383333Y-28742857D01*
X103316666Y-28647619D01*
X103183333Y-28552380D01*
X102916666Y-28457142D01*
X102783333Y-28361904D01*
X102716666Y-28266666D01*
X102650000Y-28076190D01*
X102650000Y-27885714D01*
X102716666Y-27695238D01*
X102783333Y-27600000D01*
X102916666Y-27504761D01*
X103250000Y-27504761D01*
X103450000Y-27600000D01*
X103850000Y-27504761D02*
X104650000Y-27504761D01*
X104250000Y-29504761D02*
X104250000Y-27504761D01*
X105116666Y-28457142D02*
X105583333Y-28457142D01*
X105783333Y-29504761D02*
X105116666Y-29504761D01*
X105116666Y-27504761D01*
X105783333Y-27504761D01*
X107183333Y-29504761D02*
X106716666Y-28552380D01*
X106383333Y-29504761D02*
X106383333Y-27504761D01*
X106916666Y-27504761D01*
X107050000Y-27600000D01*
X107116666Y-27695238D01*
X107183333Y-27885714D01*
X107183333Y-28171428D01*
X107116666Y-28361904D01*
X107050000Y-28457142D01*
X106916666Y-28552380D01*
X106383333Y-28552380D01*
X107783333Y-28457142D02*
X108250000Y-28457142D01*
X108450000Y-29504761D02*
X107783333Y-29504761D01*
X107783333Y-27504761D01*
X108450000Y-27504761D01*
X109316666Y-27504761D02*
X109583333Y-27504761D01*
X109716666Y-27600000D01*
X109850000Y-27790476D01*
X109916666Y-28171428D01*
X109916666Y-28838095D01*
X109850000Y-29219047D01*
X109716666Y-29409523D01*
X109583333Y-29504761D01*
X109316666Y-29504761D01*
X109183333Y-29409523D01*
X109050000Y-29219047D01*
X108983333Y-28838095D01*
X108983333Y-28171428D01*
X109050000Y-27790476D01*
X109183333Y-27600000D01*
X109316666Y-27504761D01*
X111583333Y-29504761D02*
X111583333Y-27504761D01*
X112050000Y-28933333D01*
X112516666Y-27504761D01*
X112516666Y-29504761D01*
X113183333Y-29504761D02*
X113183333Y-27504761D01*
X113716666Y-27504761D02*
X114650000Y-29504761D01*
X114650000Y-27504761D02*
X113716666Y-29504761D01*
X115183333Y-28457142D02*
X115650000Y-28457142D01*
X115850000Y-29504761D02*
X115183333Y-29504761D01*
X115183333Y-27504761D01*
X115850000Y-27504761D01*
X117250000Y-29504761D02*
X116783333Y-28552380D01*
X116450000Y-29504761D02*
X116450000Y-27504761D01*
X116983333Y-27504761D01*
X117116666Y-27600000D01*
X117183333Y-27695238D01*
X117250000Y-27885714D01*
X117250000Y-28171428D01*
X117183333Y-28361904D01*
X117116666Y-28457142D01*
X116983333Y-28552380D01*
X116450000Y-28552380D01*
D12*
X103619047Y-50904761D02*
X102952380Y-49952380D01*
X102476190Y-50904761D02*
X102476190Y-48904761D01*
X103238095Y-48904761D01*
X103428571Y-49000000D01*
X103523809Y-49095238D01*
X103619047Y-49285714D01*
X103619047Y-49571428D01*
X103523809Y-49761904D01*
X103428571Y-49857142D01*
X103238095Y-49952380D01*
X102476190Y-49952380D01*
X103619047Y-73904761D02*
X102952380Y-72952380D01*
X102476190Y-73904761D02*
X102476190Y-71904761D01*
X103238095Y-71904761D01*
X103428571Y-72000000D01*
X103523809Y-72095238D01*
X103619047Y-72285714D01*
X103619047Y-72571428D01*
X103523809Y-72761904D01*
X103428571Y-72857142D01*
X103238095Y-72952380D01*
X102476190Y-72952380D01*
X103619047Y-96904761D02*
X102952380Y-95952380D01*
X102476190Y-96904761D02*
X102476190Y-94904761D01*
X103238095Y-94904761D01*
X103428571Y-95000000D01*
X103523809Y-95095238D01*
X103619047Y-95285714D01*
X103619047Y-95571428D01*
X103523809Y-95761904D01*
X103428571Y-95857142D01*
X103238095Y-95952380D01*
X102476190Y-95952380D01*
X103619047Y-86904761D02*
X102666666Y-86904761D01*
X102666666Y-84904761D01*
X103619047Y-63904761D02*
X102666666Y-63904761D01*
X102666666Y-61904761D01*
X103619047Y-40904761D02*
X102666666Y-40904761D01*
X102666666Y-38904761D01*
M02*
